com\exojava\exercice\exceptionexo\MontantTropEleveeException.class
com\exojava\exercice\exceptionexo\ExceptionExo.class
com\exojava\exercice\exceptionexo\MontantInvalideException.class
com\exojava\exercice\argument\EcrireArgument.class
com\exojava\exercice\exceptionexo\Service.class
