C:\java\java-17\exceptionExo\src\main\java\com\exojava\exercice\exceptionexo\MontantTropEleveeException.java
C:\java\java-17\exceptionExo\src\main\java\com\exojava\exercice\exceptionexo\MontantInvalideException.java
C:\java\java-17\exceptionExo\src\main\java\com\exojava\exercice\exceptionexo\Service.java
C:\java\java-17\exceptionExo\src\main\java\com\exojava\exercice\argument\EcrireArgument.java
C:\java\java-17\exceptionExo\src\main\java\com\exojava\exercice\exceptionexo\ExceptionExo.java
